Retrieve data from a Quandl Tables API Endpoint — quandl_datatable • tidyquandl
…
# get one month of prices from two tickers
quandl_datatable(
  "WIKI/PRICES",
  ticker = c("AAPL", "MSFT"),
  date.gte = "2018-01-01",
  date.lt = "2018-02-01"
)
#> # A tibble: 42 x 14
#>    ticker date        open  high   low close   volume `ex-dividend` split_ratio
#>    <chr>  <date>     <dbl> <dbl> <dbl> <dbl>    <dbl>         <dbl>       <dbl>
#>  1 AAPL   2018-01-02  170.  172.  169.  172. 25048048             0           1
#>  2 AAPL   2018-01-03  173.  175.  172.  172. 28819653             0           1
#>  3 AAPL   2018-01-04  173.  173.  172.  173. 22211345             0           1
#>  4 AAPL   2018-01-05  173.  175.  173.  175  23016177             0           1
#>  5 AAPL   2018-01-08  174.  176.  174.  174. 20134092             0           1
#>  6 AAPL   2018-01-09  175.  175.  173.  174. 21262614             0           1
#>  7 AAPL   2018-01-10  173.  174.  173   174. 23589129             0           1
#>  8 AAPL   2018-01-11  175.  175.  174.  175. 17523256             0           1
#>  9 AAPL   2018-01-12  176.  177.  176.  177. 25039531             0           1
#> 10 AAPL   2018-01-16  178.  179.  176.  176. 29159005             0           1
#> # ... with 32 more rows, and 5 more variables: adj_open <dbl>, adj_high <dbl>,
#> #   adj_low <dbl>, adj_close <dbl>, adj_volume <dbl>
…
